<svg xmlns="http://www.w3.org/2000/svg" xmlns:xlink="http://www.w3.org/1999/xlink" viewBox="3981.61 2847.886 92.508 93.55">
  <defs>
    <style>
      .cls-1, .cls-22 {
        fill: #fff;
      }

      .cls-1 {
        stroke: #95989a;
      }

      .cls-2 {
        fill: #eeeaff;
      }

      .cls-2, .cls-29 {
        stroke: #47beed;
        stroke-width: 3px;
      }

      .cls-3 {
        clip-path: url(#clip-path);
      }

      .cls-4 {
        clip-path: url(#clip-path-2);
      }

      .cls-5 {
        fill: #f6b285;
      }

      .cls-6 {
        fill: #e56a3b;
      }

      .cls-7 {
        fill: url(#linear-gradient);
      }

      .cls-8 {
        clip-path: url(#clip-path-6);
      }

      .cls-9 {
        fill: url(#linear-gradient-2);
      }

      .cls-10 {
        clip-path: url(#clip-path-8);
      }

      .cls-11 {
        fill: url(#linear-gradient-3);
      }

      .cls-12 {
        fill: url(#linear-gradient-4);
      }

      .cls-13 {
        fill: #3b120e;
      }

      .cls-14 {
        clip-path: url(#clip-path-12);
      }

      .cls-15 {
        fill: url(#linear-gradient-5);
      }

      .cls-16 {
        clip-path: url(#clip-path-14);
      }

      .cls-17 {
        fill: url(#linear-gradient-6);
      }

      .cls-18 {
        fill: #1d1d1b;
      }

      .cls-19 {
        fill: #1b1b1b;
      }

      .cls-20 {
        opacity: 0.5;
      }

      .cls-21 {
        clip-path: url(#clip-path-15);
      }

      .cls-23 {
        fill: #1c1d3e;
      }

      .cls-24 {
        opacity: 0.4;
      }

      .cls-25 {
        opacity: 0.35;
      }

      .cls-26 {
        fill: #1d1f42;
      }

      .cls-27 {
        fill: #6c6b41;
      }

      .cls-28, .cls-29, .cls-31 {
        fill: none;
      }

      .cls-28 {
        stroke: #000;
      }

      .cls-30 {
        stroke: none;
      }
    </style>
    <clipPath id="clip-path">
      <ellipse id="Ellipse_50" data-name="Ellipse 50" class="cls-1" cx="45.863" cy="46.384" rx="45.863" ry="46.384" transform="translate(0 0)"/>
    </clipPath>
    <clipPath id="clip-path-2">
      <path id="Path_1204" data-name="Path 1204" d="M97.889,52.186A46.138,46.138,0,0,1,33.116,94.368c-1.978-.876-17.578,9.886-19.4,8.752-1.854-1.156,10.075-14.213,8.409-15.613A46.115,46.115,0,1,1,97.889,52.186Z" transform="translate(-5.66 -6.071)"/>
    </clipPath>
    <linearGradient id="linear-gradient" x1="13.001" y1="-13.379" x2="14.918" y2="-13.379" gradientUnits="objectBoundingBox">
      <stop offset="0" stop-color="#62190d"/>
      <stop offset="1" stop-color="#37170e"/>
    </linearGradient>
    <clipPath id="clip-path-6">
      <path id="Path_1210" data-name="Path 1210" d="M42.763-4.881V37.835h6.261V7.663H95.859V-4.881Z" transform="translate(-42.763 4.881)"/>
    </clipPath>
    <linearGradient id="linear-gradient-2" x1="-1.159" y1="-1.037" x2="-1.096" y2="-1.037" xlink:href="#linear-gradient"/>
    <clipPath id="clip-path-8">
      <rect id="Rectangle_104" data-name="Rectangle 104" width="6.261" height="42.716"/>
    </clipPath>
    <linearGradient id="linear-gradient-3" x1="3.488" y1="-2.74" x2="4.02" y2="-2.74" xlink:href="#linear-gradient"/>
    <linearGradient id="linear-gradient-4" x1="5.289" y1="-7.965" x2="7.206" y2="-7.965" xlink:href="#linear-gradient"/>
    <clipPath id="clip-path-12">
      <path id="Path_1217" data-name="Path 1217" d="M132.37,79.475h11.7v-3.34l-11.7-1.177Z" transform="translate(-132.37 -74.958)"/>
    </clipPath>
    <linearGradient id="linear-gradient-5" x1="-3.053" y1="-25.196" x2="-2.768" y2="-25.196" xlink:href="#linear-gradient"/>
    <clipPath id="clip-path-14">
      <path id="Path_1219" data-name="Path 1219" d="M70.969,76.135v3.34h11.7V74.958Z" transform="translate(-70.969 -74.958)"/>
    </clipPath>
    <linearGradient id="linear-gradient-6" x1="-1.462" y1="-25.196" x2="-1.177" y2="-25.196" xlink:href="#linear-gradient"/>
    <clipPath id="clip-path-15">
      <rect id="Rectangle_108" data-name="Rectangle 108" width="5.064" height="5.064"/>
    </clipPath>
  </defs>
  <g id="Group_1943" data-name="Group 1943" transform="translate(3982 2848.277)">
    <path id="Path_1236" data-name="Path 1236" class="cls-2" d="M46.254,1.5c24.717,0,44.754,20.27,44.754,45.275S70.971,92.05,46.254,92.05,1.5,71.78,1.5,46.775,21.537,1.5,46.254,1.5Z" transform="translate(-0.391 -0.391)"/>
    <g id="Mask_Group_4" data-name="Mask Group 4" class="cls-3" transform="translate(0 0)">
      <g id="Group_1776" data-name="Group 1776" class="cls-4" transform="translate(-0.251 0.254)">
        <path id="Path_1203" data-name="Path 1203" class="cls-5" d="M111.73,147.372V175.8l-8.993,7.522L93.723,175.8V147.372Z" transform="translate(-58.103 -90.217)"/>
      </g>
      <g id="Group_1777" data-name="Group 1777" class="cls-4" transform="translate(-0.251 0.254)">
        <path id="Path_1205" data-name="Path 1205" class="cls-6" d="M110.277,165.611c-.294-14.5-.525-18.952,1.2-27.463l-20.4-.231c.946,1.365,2.185,8.929,1.639,16.325,3.782,3.551,8.783,11.788,17.566,11.368" transform="translate(-56.524 -84.587)"/>
      </g>
      <g id="Group_1778" data-name="Group 1778" transform="translate(21.039 6.056)">
        <path id="Path_1207" data-name="Path 1207" class="cls-5" d="M105.109,20.437v47.7h0L92.439,80.887l-.336.337A15.1,15.1,0,0,1,71.3,81.2c-.105-.1-.231-.21-.336-.315L58.3,68.112v-47.7l46.814.021Z" transform="translate(-58.295 -20.416)"/>
      </g>
      <g id="Group_1779" data-name="Group 1779" class="cls-4" transform="translate(-0.251 0.254)">
        <path id="Path_1208" data-name="Path 1208" class="cls-7" d="M89.77,145.514c-.483-.862-3.7-14.373-3.257-14.435,1.807-.252,8.215-.105,10.422-.084,2.247.021,6.829.084,8.656.084.483,0-2.059,13.952-2.185,14.182-.5,1.052-2.942.925-3.761.106-.525-.526.462-5.254,0-5.842-.421-.525-5.232-.525-5.652,0-.462.588.483,5.253,0,5.842a3.622,3.622,0,0,1-2.458.777,1.921,1.921,0,0,1-1.765-.63m11.473-20.7c-.294.147-3.908,2.9-4.287,2.9s-4.475-2.837-5.148-2.773c-.673.042-6.219,2.92-6.514,3.025s-3.572,2.5-3.572,2.5,2.311,15.128,2.71,15.192,5.568,6.934,6.451,6.934c.9,0,9.119.21,12.145,0,.4-.021.252-.042,1.407-.862,1.177-.819,5.337-5.737,5.337-5.737a1.126,1.126,0,0,0,.231-.672l2.416-14.9s-3.782-2.5-3.992-2.5-6.619-3.152-7.187-3.152c.022.021,0,.021,0,.042" transform="translate(-50.956 -76.761)"/>
      </g>
      <g id="Group_1781" data-name="Group 1781" class="cls-4" transform="translate(-0.251 0.254)">
        <g id="Group_1780" data-name="Group 1780" class="cls-8" transform="translate(15.008 -4.43)">
          <rect id="Rectangle_102" data-name="Rectangle 102" class="cls-9" width="53.096" height="42.716"/>
        </g>
      </g>
      <g id="Group_1783" data-name="Group 1783" class="cls-4" transform="translate(-0.251 0.254)">
        <g id="Group_1782" data-name="Group 1782" class="cls-10" transform="translate(68.104 -4.43)">
          <rect id="Rectangle_103" data-name="Rectangle 103" class="cls-11" width="6.261" height="42.716"/>
        </g>
      </g>
      <g id="Group_1784" data-name="Group 1784" class="cls-4" transform="translate(-0.251 0.254)">
        <path id="Path_1213" data-name="Path 1213" class="cls-12" d="M103.369-4.881a20.464,20.464,0,0,1-20.381,20.36A20.537,20.537,0,0,1,63.614,1.4L37.308,1.38a6.3,6.3,0,0,0,6.261,6.282H58.7A24.526,24.526,0,0,0,76.852,22.35V17.664a24.417,24.417,0,0,0,14.96,5.105H106.5a15.034,15.034,0,0,0-5.378-11.556,18.207,18.207,0,0,0,2.857-2.374,19.342,19.342,0,0,0,5.673-13.72Z" transform="translate(-24.507 0.451)"/>
      </g>
      <g id="Group_1786" data-name="Group 1786" class="cls-4" transform="translate(-0.251 0.254)">
        <g id="Group_1785" data-name="Group 1785" transform="translate(12.801 -17.037)">
          <path id="Path_1215" data-name="Path 1215" class="cls-13" d="M140.613-23.464h0A20.464,20.464,0,0,1,120.232-3.1a20.537,20.537,0,0,1-19.373-14.078,20.078,20.078,0,0,1-1.009-6.283h20.36L136.222-36.05a20.117,20.117,0,0,1,4.392,12.586" transform="translate(-74.552 36.05)"/>
          <rect id="Rectangle_105" data-name="Rectangle 105" class="cls-13" width="31.287" height="6.283" transform="translate(0 12.586)"/>
        </g>
      </g>
      <g id="Group_1788" data-name="Group 1788" class="cls-4" transform="translate(-0.251 0.254)">
        <g id="Group_1787" data-name="Group 1787" class="cls-14" transform="translate(51.253 24.864)">
          <rect id="Rectangle_106" data-name="Rectangle 106" class="cls-15" width="11.704" height="4.539"/>
        </g>
      </g>
      <g id="Group_1821" data-name="Group 1821" class="cls-4" transform="translate(-0.251 0.254)">
        <g id="Group_1820" data-name="Group 1820" transform="translate(2.002 27.864)">
          <g id="Group_1790" data-name="Group 1790" transform="translate(24.415 -3)">
            <g id="Group_1789" data-name="Group 1789" class="cls-16">
              <rect id="Rectangle_107" data-name="Rectangle 107" class="cls-17" width="11.704" height="4.539"/>
            </g>
          </g>
          <g id="Group_1791" data-name="Group 1791" transform="translate(9.664 4.518)">
            <path id="Path_1220" data-name="Path 1220" class="cls-5" d="M46.312,92.032a5.9,5.9,0,1,1-5.9-5.9,5.91,5.91,0,0,1,5.9,5.9" transform="translate(-34.503 -86.127)"/>
          </g>
          <g id="Group_1792" data-name="Group 1792" transform="translate(63.874 4.518)">
            <path id="Path_1221" data-name="Path 1221" class="cls-5" d="M180.331,92.032a5.9,5.9,0,1,1-5.9-5.9,5.91,5.91,0,0,1,5.9,5.9" transform="translate(-168.522 -86.127)"/>
          </g>
          <g id="Group_1793" data-name="Group 1793" transform="translate(26.243 6.367)">
            <path id="Path_1222" data-name="Path 1222" class="cls-18" d="M84.9,95.4H75.489a4.706,4.706,0,1,1,9.413,0" transform="translate(-75.489 -90.698)"/>
          </g>
          <g id="Group_1794" data-name="Group 1794" transform="translate(49.713 6.367)">
            <path id="Path_1223" data-name="Path 1223" class="cls-18" d="M142.926,95.4h-9.413a4.706,4.706,0,1,1,9.413,0" transform="translate(-133.513 -90.698)"/>
          </g>
          <g id="Group_1795" data-name="Group 1795" transform="translate(15.212 2.354)">
            <path id="Path_1224" data-name="Path 1224" class="cls-19" d="M48.218,80.777v2.164A5.861,5.861,0,0,1,54,87.8l.441,2.5a4.711,4.711,0,0,0,4.644,3.887h8.888a4.743,4.743,0,0,0,4.665-4.034l.735-5.022h4.287l.735,5.022a4.743,4.743,0,0,0,4.664,4.034h8.888A4.711,4.711,0,0,0,96.586,90.3l.441-2.5a5.863,5.863,0,0,1,5.778-4.854V80.777ZM70.49,89.834A2.549,2.549,0,0,1,67.99,92H59.1a2.528,2.528,0,0,1-2.5-2.1l-1.24-6.955H71.5ZM91.943,92H83.055a2.516,2.516,0,0,1-2.5-2.165l-1.008-6.871H95.683l-1.24,6.955A2.564,2.564,0,0,1,91.943,92" transform="translate(-48.218 -80.777)"/>
          </g>
          <g id="Group_1819" data-name="Group 1819" transform="translate(0 7.775)">
            <g id="Group_1818" data-name="Group 1818">
              <g id="Group_1817" data-name="Group 1817">
                <g id="Group_1816" data-name="Group 1816">
                  <g id="Group_1798" data-name="Group 1798" class="cls-20" transform="translate(13.006 0.44)">
                    <g id="Group_1797" data-name="Group 1797">
                      <g id="Group_1796" data-name="Group 1796" class="cls-21">
                        <path id="Path_1225" data-name="Path 1225" class="cls-6" d="M47.848,97.813a2.542,2.542,0,1,1-2.543-2.542,2.538,2.538,0,0,1,2.543,2.542" transform="translate(-42.764 -95.271)"/>
                      </g>
                    </g>
                  </g>
                  <g id="Group_1815" data-name="Group 1815">
                    <g id="Group_1814" data-name="Group 1814">
                      <g id="Group_1813" data-name="Group 1813">
                        <g id="Group_1812" data-name="Group 1812">
                          <g id="Group_1802" data-name="Group 1802" transform="translate(31.58)">
                            <g id="Group_1801" data-name="Group 1801" class="cls-20" transform="translate(36.161 0.44)">
                              <g id="Group_1800" data-name="Group 1800">
                                <g id="Group_1799" data-name="Group 1799" class="cls-21">
                                  <path id="Path_1226" data-name="Path 1226" class="cls-6" d="M183.115,97.813a2.542,2.542,0,1,1-2.542-2.542,2.538,2.538,0,0,1,2.542,2.542" transform="translate(-178.052 -95.271)"/>
                                </g>
                              </g>
                            </g>
                            <path id="Path_1227" data-name="Path 1227" class="cls-22" d="M148.475,95.168a.987.987,0,1,1-.987-.987.986.986,0,0,1,.987.987" transform="translate(-123.115 -94.181)"/>
                            <path id="Path_1228" data-name="Path 1228" class="cls-22" d="M90.659,95.168a.987.987,0,1,1-.987-.987.986.986,0,0,1,.987.987" transform="translate(-88.684 -94.181)"/>
                          </g>
                          <g id="Group_1803" data-name="Group 1803" transform="translate(0.084 40.616)">
                            <path id="Path_1229" data-name="Path 1229" class="cls-23" d="M78.622,201.779a72.245,72.245,0,0,1-11.494-4.559l-2.353-2.626c-3.047,4.915-17,4.349-22,.189L41.7,196.191c-5.484,1.974-9.938,3.194-15.3,4.686-4.286-.841-7.06,9.98-15.59,29.6,5.378,3.047,17.965,6.472,17.965,6.472.42,3.551.231,11.073-1.45,14.834-.462,1.03,1.05,1.219.735,2.249-.147.462-.967,1.512-1.324,2.185-.63,1.2.525,1.2.357,2.71-1.2,11.094-5.442,14.2-.189,16.978,6.115-.735,23.428,7.984,49.965.42,2-.566,1.576-1.723.758-5.421-.526-2.4.987-2.689.8-35.089,4.119-.735,9.938-2.585,13.048-4.559-3.089-10.549-10.043-28.241-12.859-29.48" transform="translate(-10.818 -194.594)"/>
                          </g>
                          <g id="Group_1811" data-name="Group 1811" transform="translate(0 42.212)">
                            <g id="Group_1810" data-name="Group 1810" class="cls-24">
                              <g id="Group_1805" data-name="Group 1805" class="cls-25" transform="translate(0 6.916)">
                                <g id="Group_1804" data-name="Group 1804">
                                  <path id="Path_1230" data-name="Path 1230" class="cls-26" d="M27.167,264.317c-.462,1.03,1.05,1.219.735,2.249-.147.462-.966,1.512-1.323,2.185-.63,1.2.525,1.2.357,2.71-1.2,11.094-5.442,14.2-.189,16.978,6.115-.735,23.428,7.984,49.966.42,2-.566,1.575-1.723.756-5.421-.526-2.4.987-2.689.8-35.089,4.12-.735,9.939-2.585,13.049-4.559-.042-.147-.085-.294-.126-.462-2.9,1.492-12.1,4.286-12.5,2.626C77.847,242.36,76,224,75.452,223.24c1.7,20.3.294,32.253-6.219,40.469a54.444,54.444,0,0,0,7.922-12.733c-1.03,2.375-3.552,12.775-5.884,17.439,1.87-.862,3.531-5.169,5.3-8.825.462,4.56-.022,16.157-1.807,21.1-1.3,3.656-5.253,5.526-8.636,6.3,2.753-.4,6.157-1.071,8.93-2.962.546,2.353-.442,5.022-7.207,6.073-6.787,1.05-17.8.483-10.8-5.463-5.043,3.761-26.181,5.232-2.375-7.375-4.055,1.281-15.066,7.039-16.284,5.274s14.33-15.086,18.469-18.721c-6.177,4.036-12.187,9.624-19.814,13.742,8.174-8.195,2.059-13.174-2.753-7.859-2.626,1.724-3.845-.777-2.668-2.375a208,208,0,0,0,13.658-20.738c-3,4.223-13.489,17.439-14.54,16.011-1.05-1.451,5.925-11.494,7.207-15.99-3.382,5.589-5.568,7.753-6.367,7.606-2.185-.441,4.349-28.491-2.92-38.576,5.673,15.086,1.87,29.353.021,31.58-2.921.777-18.07-4.182-18.07-4.182,5.378,3.046,17.965,6.471,17.965,6.471.462,3.507.273,11.03-1.408,14.811" transform="translate(-10.61 -215.637)"/>
                                </g>
                              </g>
                              <g id="Group_1809" data-name="Group 1809" transform="translate(2.014)">
                                <g id="Group_1807" data-name="Group 1807" class="cls-25" transform="translate(28.598)">
                                  <g id="Group_1806" data-name="Group 1806">
                                    <path id="Path_1231" data-name="Path 1231" class="cls-27" d="M110.918,200.242c-10.8,7.375-22.188.967-24.31-1.7-.105.042-.21.062-.315.1,5.358,5.757,17.9,8.048,24.625,1.6" transform="translate(-86.293 -198.54)"/>
                                  </g>
                                </g>
                                <path id="Path_1232" data-name="Path 1232" class="cls-5" d="M178.342,290.588a61.693,61.693,0,0,1-8.489,2.395l-.021,1.681c-.063,1.66-.168,8.195-.085,10.485,0,0-.672,21.579-1.786,23.428a9.778,9.778,0,0,1-2.248,2.542,33.224,33.224,0,0,0-1.345,3.8l2.564,1.807a32.49,32.49,0,0,1,.61,6.661c-.925-.567-2.039-1.114-2.375-.672a4.444,4.444,0,0,0-.23,2.311,12,12,0,0,0,2.584,1.912c.168.063,2.69.883,2.858.631a7.778,7.778,0,0,0,.756-1.808,7.865,7.865,0,0,0,2.437-.9c.231-.252.483-.588.61-1.87a4.876,4.876,0,0,0,1.912-1.071c.441-.694-2.71-10.191-2.416-12.271.777-5.189,7.69-20.654,4.769-26.769-.694-3.594.062-9.118-.105-12.291" transform="translate(-104.189 -253.356)"/>
                                <g id="Group_1808" data-name="Group 1808" transform="translate(0 35.993)">
                                  <path id="Path_1233" data-name="Path 1233" class="cls-5" d="M17.231,287.524c3.719,1.281,9.329,3.382,13.09,4.391-.315,2.668-1.891,7.753-2.311,10.8,0,0,2.059,22.125,3.4,23.953.966,1.3,4.98,1.765,5.715,2.1s1.6,2.334,2.332,4.077l-3.341,2.962a32.845,32.845,0,0,0-.126,7c.946-.65,2.122-1.323,2.5-.882a4.531,4.531,0,0,1,.441,2.4,14.561,14.561,0,0,1-2.626,2.206,17.447,17.447,0,0,1-4.055.021,8.544,8.544,0,0,1-.967-1.828,8.532,8.532,0,0,1-2.689-.756c-.273-.231-.568-.589-.8-1.891a5.209,5.209,0,0,1-2.143-.946c-.525-.672-.546-9.9-1.135-12-1.45-5.211-9.749-22.041-8.867-25.046,1.408-1.323-1.429-3.109,1.575-16.556" transform="translate(-15.59 -287.524)"/>
                                </g>
                              </g>
                            </g>
                          </g>
                        </g>
                      </g>
                    </g>
                  </g>
                </g>
              </g>
            </g>
          </g>
        </g>
      </g>
      <path id="Path_1235" data-name="Path 1235" class="cls-28" d="M2083.184,11233" transform="translate(-2031.423 -11175.643)"/>
      <g id="Group_1944" data-name="Group 1944" transform="translate(36.682 54.584)">
        <path id="Path_1129" data-name="Path 1129" class="cls-22" d="M113.078,140.411l-2.988,5.213a4.472,4.472,0,0,1-3.881,2.114h-3.9a4.425,4.425,0,0,1-3.882-2.114l-2.987-5.213Z" transform="translate(-95.437 -140.411)"/>
      </g>
    </g>
    <g id="Ellipse_51" data-name="Ellipse 51" class="cls-29" transform="translate(0 0)">
      <ellipse class="cls-30" cx="45.863" cy="46.384" rx="45.863" ry="46.384"/>
      <ellipse class="cls-31" cx="45.863" cy="46.384" rx="44.363" ry="44.884"/>
    </g>
  </g>
</svg>
