<?xml version="1.0" encoding="iso-8859-1"?>
<!-- Generator: Adobe Illustrator 19.0.0, SVG Export Plug-In . SVG Version: 6.00 Build 0)  -->
<svg version="1.1" id="Capa_1" xmlns="http://www.w3.org/2000/svg" xmlns:xlink="http://www.w3.org/1999/xlink" x="0px" y="0px"
	 viewBox="0 0 512 512" style="enable-background:new 0 0 512 512;" xml:space="preserve">
<path style="fill:#9697CD;" d="M512,17.871v353.84c0,6.601-5.351,11.952-11.952,11.952H146.22c-6.602,0-11.952-5.351-11.952-11.952
	V17.871c0-6.601,5.351-11.952,11.952-11.952h353.827C506.649,5.919,512,11.269,512,17.871z"/>
<path style="fill:#6B6FB5;" d="M462.21,79.08v304.583H146.22c-6.602,0-11.952-5.351-11.952-11.952V49.788h298.651
	C449.069,49.788,462.21,62.929,462.21,79.08z"/>
<path style="fill:#FF6A66;" d="M444.871,79.08v353.84c0,6.601-5.35,11.952-11.952,11.952H79.079
	c-6.589,0-11.952-5.351-11.952-11.952V79.08c0-6.601,5.363-11.952,11.952-11.952h353.84C439.52,67.128,444.871,72.478,444.871,79.08
	z"/>
<path style="fill:#FF433E;" d="M395.081,140.289v304.583H79.079c-6.589,0-11.952-5.351-11.952-11.952V110.997H365.79
	C381.94,110.997,395.081,124.138,395.081,140.289z"/>
<path style="fill:#72F2EB;" d="M365.788,506.081H11.951C5.351,506.081,0,500.73,0,494.13V140.293
	c0-6.601,5.351-11.951,11.951-11.951h353.836c6.601,0,11.951,5.351,11.951,11.951V494.13
	C377.739,500.73,372.388,506.081,365.788,506.081z"/>
<path style="fill:#00A094;" d="M136.683,273.525h-49.79c-5.462,0-9.889-4.428-9.889-9.889v-49.789c0-5.462,4.428-9.889,9.889-9.889
	h49.789c5.462,0,9.889,4.428,9.889,9.889v49.789C146.572,269.097,142.145,273.525,136.683,273.525z"/>
<path style="fill:#FF433E;" d="M106.421,364.222L74.854,424.73c-2.102,4.03,0.821,8.853,5.367,8.853h63.136
	c4.545,0,7.469-4.823,5.367-8.853l-31.568-60.508C114.892,359.884,108.684,359.884,106.421,364.222z"/>
<g>
	<circle style="fill:#5089DD;" cx="276.37" cy="327.53" r="36.789"/>
	<path style="fill:#5089DD;" d="M276.371,430.761h-80.263c-4.268,0-7.726-3.459-7.726-7.726s3.459-7.726,7.726-7.726h72.537v-18.032
		c0-4.267,3.459-7.726,7.726-7.726c4.268,0,7.726,3.459,7.726,7.726v25.759C284.097,427.301,280.639,430.761,276.371,430.761z"/>
</g>
<path style="fill:#FF433E;" d="M111.788,339.771c-4.268,0-7.726-3.459-7.726-7.726v-33.008c0-4.267,3.459-7.726,7.726-7.726
	s7.726,3.459,7.726,7.726v33.008C119.514,336.312,116.055,339.771,111.788,339.771z"/>
<path style="fill:#00A094;" d="M294.447,226.811l-18.818-18.819c-3.017-3.018-7.909-3.018-10.928,0
	c-3.017,3.017-3.017,7.909,0,10.927l5.759,5.759h-97.957c-4.268,0-7.726,3.459-7.726,7.726s3.459,7.726,7.726,7.726H270.2
	l-5.499,5.5c-3.017,3.018-3.017,7.91,0.001,10.927c1.508,1.509,3.486,2.263,5.463,2.263c1.977,0,3.955-0.755,5.464-2.263
	l18.818-18.819C297.464,234.72,297.464,229.828,294.447,226.811z"/>
<g>
</g>
<g>
</g>
<g>
</g>
<g>
</g>
<g>
</g>
<g>
</g>
<g>
</g>
<g>
</g>
<g>
</g>
<g>
</g>
<g>
</g>
<g>
</g>
<g>
</g>
<g>
</g>
<g>
</g>
</svg>
