<svg xmlns="http://www.w3.org/2000/svg" viewBox="5970 376 162.4 178.1">
  <defs>
    <style>
      .cls-13,.cls-18,.cls-2,.cls-5,.cls-7,.cls-8{fill-rule:evenodd}.cls-4,.cls-8{fill:#6b6b6b}.cls-5{fill:#7d7d7d}.cls-6{opacity:.102}.cls-7{fill:#fff}.cls-20{fill:#e9e9e9}.cls-12{fill:#fafafa}.cls-13{fill:#cacaca}.cls-14{fill:#00b9ea}.cls-18{fill:#e6e6e6}.cls-21{fill:#f26f21}.cls-22{fill:#00bff2}.cls-23{fill:#30c0ee}
    </style>
  </defs>
  <g id="Group_4219" data-name="Group 4219" transform="translate(5970 376)">
    <g id="_x2018_Ë_x201E_Û_xF8FF__x2021__x5F_10_x5F__x5F_x28_x5F_ÍÓÔË_x2C7__x5F_x29_x5F__1_" opacity=".051">
      <path id="Path_4646" data-name="Path 4646" class="cls-2" d="M142.5 131.2V100a10.285 10.285 0 0 0-10.3-10.3h-5.8l-.5-3h3.3a3.009 3.009 0 0 0 3-3 3.009 3.009 0 0 0 3 3h3a3.009 3.009 0 0 0 3-3V68.9a3.009 3.009 0 0 0-3-3h-3a3.009 3.009 0 0 0-3 3 3.009 3.009 0 0 0-3-3h-6.9L114 19H19l8.2 46.9H13.4a3.009 3.009 0 0 0-3 3 3.009 3.009 0 0 0-3-3h-3a3.009 3.009 0 0 0-3 3v14.8a3.009 3.009 0 0 0 3 3h3a3.009 3.009 0 0 0 3-3 3.009 3.009 0 0 0 3 3h17.5l.5 3H10.3A10.285 10.285 0 0 0 0 100v31.2l15.4 36.6a10.285 10.285 0 0 0 10.3 10.3h110a10.285 10.285 0 0 0 10.3-10.3z"/>
    </g>
    <g id="_x2018_Ë_x201E_Û_xF8FF__x2021__x5F_20_1_">
      <path id="Path_4647" data-name="Path 4647" d="M138.7 56.4H22.9a3.009 3.009 0 0 0-3 3v14.8a3.009 3.009 0 0 0 3 3h115.8a3.009 3.009 0 0 0 3-3V59.4a3.075 3.075 0 0 0-3-3z" fill="#ccc"/>
    </g>
    <g id="_x2018_Ë_x201E_Û_xF8FF__x2021__x5F_23_1_">
      <path id="Path_4648" data-name="Path 4648" class="cls-4" d="M147.6 56.4h-3a3.009 3.009 0 0 0-3 3v14.8a3.009 3.009 0 0 0 3 3h3a3.009 3.009 0 0 0 3-3V59.4a3.075 3.075 0 0 0-3-3z"/>
    </g>
    <g id="_x2018_Ë_x201E_Û_xF8FF__x2021__x5F_22_1_">
      <path id="Path_4649" data-name="Path 4649" class="cls-5" d="M149.1 72.7V59.4a1.473 1.473 0 0 0-1.5-1.5h-2.9a1.473 1.473 0 0 0-1.5 1.5v13.3h5.9z"/>
    </g>
    <g id="_x2018_Ë_x201E_Û_xF8FF__x2021__x5F_22_x5F__x5F_x28_x5F_ÍÓÔË_x2C7__x5F_x29_x5F__x5F_2_1_" class="cls-6">
      <path id="Path_4650" data-name="Path 4650" class="cls-7" d="M147.5 57.9h-2.9a1.473 1.473 0 0 0-1.5 1.5v1.4h5.9v-1.4a1.415 1.415 0 0 0-1.5-1.5z"/>
    </g>
    <g id="_x2018_Ë_x201E_Û_xF8FF__x2021__x5F_24_1_" class="cls-6">
      <path id="Path_4651" data-name="Path 4651" class="cls-7" d="M148.4 66.8h-4.5a.2.2 0 1 0 0 .4h4.5a.2.2 0 0 0 0-.4zm0-3.5h-4.5a.2.2 0 0 0 0 .4h4.5a.2.2 0 0 0 0-.4zm0-2.4h-4.5a.2.2 0 0 0 0 .4h4.5a.2.2 0 0 0 0-.4zm0-1.2h-4.5a.2.2 0 0 0 0 .4h4.5a.2.2 0 0 0 0-.4zm-4.5-.5h4.5a.2.2 0 0 0 0-.4h-4.5a.215.215 0 0 0-.2.2c-.1.1 0 .2.2.2zm4.5 11.2h-4.5a.2.2 0 1 0 0 .4h4.5a.2.2 0 0 0 0-.4zm0 2.4h-4.5a.2.2 0 1 0 0 .4h4.5a.2.2 0 0 0 0-.4zm0 1.1h-4.5a.2.2 0 1 0 0 .4h4.5a.2.2 0 0 0 0-.4zm0 1h-4.5a.2.2 0 1 0 0 .4h4.5a.2.2 0 0 0 0-.4z"/>
    </g>
    <g id="_x2018_Ë_x201E_Û_xF8FF__x2021__x5F_24_x5F__x5F_x28_x5F_ÍÓÔË_x2C7__x5F_x29_x5F__1_">
      <path id="Path_4652" data-name="Path 4652" class="cls-8" d="M148.4 66.6h-4.5a.2.2 0 1 0 0 .4h4.5a.2.2 0 0 0 0-.4zm0-3.6h-4.5a.2.2 0 0 0 0 .4h4.5a.2.2 0 0 0 0-.4zm0-2.4h-4.5a.2.2 0 0 0 0 .4h4.5a.2.2 0 0 0 0-.4zm0-1.1h-4.5a.2.2 0 0 0 0 .4h4.5a.2.2 0 0 0 0-.4zm-4.5-.6h4.5a.2.2 0 0 0 0-.4h-4.5a.215.215 0 0 0-.2.2c0 .1 0 .2.2.2zm4.5 11.2h-4.5a.2.2 0 1 0 0 .4h4.5a.2.2 0 0 0 0-.4zm0 2.4h-4.5a.2.2 0 1 0 0 .4h4.5a.2.2 0 0 0 0-.4zm0 1.2h-4.5a.2.2 0 1 0 0 .4h4.5a.2.2 0 0 0 0-.4zm0 1h-4.5a.2.2 0 1 0 0 .4h4.5a.2.2 0 0 0 0-.4z"/>
    </g>
    <g id="_x2018_Ë_x201E_Û_xF8FF__x2021__x5F_23_x5F__x5F_x28_x5F_ÍÓÔË_x2C7__x5F_x29_x5F__1_">
      <path id="Path_4653" data-name="Path 4653" class="cls-4" d="M16.9 56.4h-3a3.009 3.009 0 0 0-3 3v14.8a3.009 3.009 0 0 0 3 3h3a3.009 3.009 0 0 0 3-3V59.4a2.946 2.946 0 0 0-3-3z"/>
    </g>
    <g id="_x2018_Ë_x201E_Û_xF8FF__x2021__x5F_22_x5F__x5F_x28_x5F_ÍÓÔË_x2C7__x5F_x29_x5F__1_">
      <path id="Path_4654" data-name="Path 4654" class="cls-5" d="M18.4 72.7V59.4a1.473 1.473 0 0 0-1.5-1.5H14a1.473 1.473 0 0 0-1.5 1.5v13.3h5.9z"/>
    </g>
    <g id="_x2018_Ë_x201E_Û_xF8FF__x2021__x5F_22_x5F__x5F_x28_x5F_ÍÓÔË_x2C7__x5F_x29_x5F__x5F_3_1_" class="cls-6">
      <path id="Path_4655" data-name="Path 4655" class="cls-7" d="M16.9 57.9H14a1.473 1.473 0 0 0-1.5 1.5v1.4h5.9v-1.4a1.538 1.538 0 0 0-1.5-1.5z"/>
    </g>
    <g id="_x2018_Ë_x201E_Û_xF8FF__x2021__x5F_24_x5F__x5F_x28_x5F_ÍÓÔË_x2C7__x5F_x29_x5F__x5F_2_1_" class="cls-6">
      <path id="Path_4656" data-name="Path 4656" class="cls-7" d="M17.7 66.8h-4.5a.2.2 0 1 0 0 .4h4.5a.2.2 0 1 0 0-.4zm0-3.5h-4.5a.2.2 0 0 0 0 .4h4.5a.2.2 0 1 0 0-.4zm0-2.4h-4.5a.2.2 0 0 0 0 .4h4.5a.2.2 0 1 0 0-.4zm0-1.2h-4.5a.2.2 0 0 0 0 .4h4.5a.2.2 0 1 0 0-.4zm-4.5-.5h4.5a.2.2 0 1 0 0-.4h-4.5a.2.2 0 0 0 0 .4zm4.5 11.2h-4.5a.2.2 0 1 0 0 .4h4.5a.2.2 0 1 0 0-.4zm0 2.4h-4.5a.2.2 0 1 0 0 .4h4.5a.2.2 0 1 0 0-.4zm0 1.1h-4.5a.2.2 0 1 0 0 .4h4.5a.2.2 0 1 0 0-.4zm0 1h-4.5a.2.2 0 1 0 0 .4h4.5a.2.2 0 1 0 0-.4z"/>
    </g>
    <g id="_x2018_Ë_x201E_Û_xF8FF__x2021__x5F_24_x5F__x5F_x28_x5F_ÍÓÔË_x2C7__x5F_x29_x5F__x5F_3_1_">
      <path id="Path_4657" data-name="Path 4657" class="cls-8" d="M17.7 66.6h-4.5a.2.2 0 1 0 0 .4h4.5a.2.2 0 1 0 0-.4zm0-3.6h-4.5a.2.2 0 0 0 0 .4h4.5a.2.2 0 1 0 0-.4zm0-2.4h-4.5a.2.2 0 0 0 0 .4h4.5a.2.2 0 1 0 0-.4zm0-1.1h-4.5a.2.2 0 0 0 0 .4h4.5a.2.2 0 1 0 0-.4zm-4.5-.6h4.5a.2.2 0 1 0 0-.4h-4.5a.2.2 0 0 0 0 .4zm4.5 11.2h-4.5a.2.2 0 1 0 0 .4h4.5a.2.2 0 1 0 0-.4zm0 2.4h-4.5a.2.2 0 1 0 0 .4h4.5a.2.2 0 1 0 0-.4zm0 1.2h-4.5a.2.2 0 1 0 0 .4h4.5a.2.2 0 1 0 0-.4zm0 1h-4.5a.2.2 0 1 0 0 .4h4.5a.2.2 0 1 0 0-.4z"/>
    </g>
    <g id="_x2018_Ë_x201E_Û_xF8FF__x2021__x5F_21_1_">
      <path id="Path_4658" data-name="Path 4658" d="M140.1 74.2V59.4a1.473 1.473 0 0 0-1.5-1.5H22.9a1.473 1.473 0 0 0-1.5 1.5v14.8z" fill="#e9e9e9" fill-rule="evenodd"/>
    </g>
    <g id="_x2018_Ë_x201E_Û_xF8FF__x2021__x5F_21_x5F__x5F_x28_x5F_ÍÓÔË_x2C7__x5F_x29_x5F__1_">
      <path id="Path_4659" data-name="Path 4659" d="M140.2 60.8v-1.4a1.473 1.473 0 0 0-1.5-1.5H22.9a1.473 1.473 0 0 0-1.5 1.5v1.4z" fill="#fafafa" fill-rule="evenodd"/>
    </g>
    <g id="_x2018_Ë_x201E_Û_xF8FF__x2021__x5F_12_x5F__x5F_x28_x5F_ÍÓÔË_x2C7__x5F_x29_x5F__x5F_14_1_">
      <path id="Rectangle_521" data-name="Rectangle 521" transform="translate(33.3)" fill="#e0e0e0" d="M0 0h95v133.6H0z"/>
    </g>
    <g id="_x2018_Ë_x201E_Û_xF8FF__x2021__x5F_12_x5F__x5F_x28_x5F_ÍÓÔË_x2C7__x5F_x29_x5F__x5F_15_1_">
      <path id="Rectangle_522" data-name="Rectangle 522" class="cls-12" transform="translate(33.9 .7)" d="M0 0h93.6v132.2H0z"/>
    </g>
    <g id="_x2018_Ë_x201E_Û_xF8FF__x2021__x5F_33_1_">
      <path id="Path_4660" data-name="Path 4660" class="cls-13" d="M72.6 60.9H44.4a.7.7 0 1 0 0 1.4h28.2a.7.7 0 0 0 0-1.4zm41.6-3H44.4a.7.7 0 1 0 0 1.4h69.8a.7.7 0 0 0 0-1.4zm0-3H44.4a.7.7 0 1 0 0 1.4h69.8a.7.7 0 0 0 0-1.4zm-69.8-1.5h63.8a.7.7 0 0 0 0-1.4H44.4a.684.684 0 0 0-.7.7c-.1.4.3.7.7.7zm69.8-4.4H44.4a.7.7 0 1 0 0 1.4h69.8a.7.7 0 0 0 0-1.4zm0-3H44.4a.7.7 0 1 0 0 1.4h69.8a.7.7 0 0 0 0-1.4zm-69.8-4.5h40.1a.7.7 0 0 0 0-1.4H44.4a.684.684 0 0 0-.7.7c-.1.4.3.7.7.7zm69.8-4.4H44.4a.7.7 0 1 0 0 1.4h69.8a.7.7 0 0 0 0-1.4zm-69.8-1.5h69.8a.7.7 0 0 0 0-1.4H44.4a.684.684 0 0 0-.7.7c-.1.4.3.7.7.7z"/>
    </g>
    <g id="_x2018_Ë_x201E_Û_xF8FF__x2021__x5F_10_1_">
      <path id="Path_4661" data-name="Path 4661" class="cls-14" d="M141.7 80.2H19.8A10.285 10.285 0 0 0 9.5 90.5v31.2l5.9 46.1a10.285 10.285 0 0 0 10.3 10.3h110a10.285 10.285 0 0 0 10.3-10.3l5.9-46.1V90.5a10.138 10.138 0 0 0-10.2-10.3z"/>
    </g>
    <g id="_x2018_Ë_x201E_Û_xF8FF__x2021__x5F_14_1_">
      <path id="Path_4662" data-name="Path 4662" class="cls-14" d="M123.8 71.4H37.7a5.911 5.911 0 0 0-5.9 5.9v11.8a5.911 5.911 0 0 0 5.9 5.9h86.1a5.911 5.911 0 0 0 5.9-5.9V77.3a5.787 5.787 0 0 0-5.9-5.9z"/>
    </g>
    <g id="_x2018_Ë_x201E_Û_xF8FF__x2021__x5F_32_1_" class="cls-6">
      <path id="Path_4663" data-name="Path 4663" class="cls-2" d="M123.9 72.7h-22.3a20.8 20.8 0 1 1-41.6 0H37.7a4.439 4.439 0 0 0-4.4 4.4v2.2a.7.7 0 0 0 1.4 0v-2.1a3.009 3.009 0 0 1 3-3h13.4a29.74 29.74 0 0 0 59.4 0h13.4a3.009 3.009 0 0 1 3 3v2.1a.7.7 0 0 0 1.4 0v-2.2a4.439 4.439 0 0 0-4.4-4.4z"/>
    </g>
    <g id="_x2018_Ë_x201E_Û_xF8FF__x2021__x5F_8_1_">
      <path id="Path_4664" data-name="Path 4664" d="M146.4 78.4H127a44.576 44.576 0 0 1-87.2 0H20.6a9.176 9.176 0 0 0-9.2 9.2v30.7l6.1 49.1a9.176 9.176 0 0 0 9.2 9.2h113.6a9.176 9.176 0 0 0 9.2-9.2l6.1-49.1V87.6a9.176 9.176 0 0 0-9.2-9.2z" fill="#ff7311" fill-rule="evenodd"/>
    </g>
    <g id="_x2018_Ë_x201E_Û_xF8FF__x2021__x5F_27_1_" opacity=".149">
      <path id="Path_4665" data-name="Path 4665" class="cls-7" d="M141.1 83.1h-17a44.541 44.541 0 0 1-86.6 0h-17a8.024 8.024 0 0 0-8 8v19.7a8.024 8.024 0 0 0 8 8h120.7a8.024 8.024 0 0 0 8-8V91.1a8.176 8.176 0 0 0-8.1-8z"/>
    </g>
    <g id="_x2018_Ë_x201E_Û_xF8FF__x2021__x5F_6_1_">
      <path id="Path_4666" data-name="Path 4666" class="cls-14" d="M141.6 120.3H20a4.439 4.439 0 0 0-4.4 4.4l4.4 44.7a4.439 4.439 0 0 0 4.4 4.4h112.8a4.439 4.439 0 0 0 4.4-4.4l4.4-44.7a4.374 4.374 0 0 0-4.4-4.4z"/>
    </g>
    <g id="_x2018_Ë_x201E_Û_xF8FF__x2021__x5F_28_1_" class="cls-6">
      <path id="Path_4667" data-name="Path 4667" class="cls-2" d="M144.7 124.7a3.009 3.009 0 0 0-3-3H19.8a3.009 3.009 0 0 0-3 3l4.5 44.6v-43.1h118.8v43.1z"/>
    </g>
    <g id="_x2018_Ë_x201E_Û_xF8FF__x2021__x5F_3_x5F__x5F_x28_x5F_ÍÓÔË_x2C7__x5F_x29_x5F__1_" class="cls-6">
      <path id="Path_4668" data-name="Path 4668" class="cls-2" d="M95.7 155.5a3.009 3.009 0 0 0 3-3v-3h-5.9v3a2.808 2.808 0 0 0 2.9 3zm-.8-11.8v-3H89v3a2.95 2.95 0 1 0 5.9 0zm-6.7 11.8a3.009 3.009 0 0 0 3-3v-3h-5.9v3a2.808 2.808 0 0 0 2.9 3zm7.5-17.7a3.009 3.009 0 0 0 3-3v-3h-5.9v3a2.862 2.862 0 0 0 2.9 3zm-8.2 5.9v-3h-5.9v3a3.009 3.009 0 0 0 3 3 2.925 2.925 0 0 0 2.9-3zm.7-5.9a3.009 3.009 0 0 0 3-3v-3h-5.9v3a2.862 2.862 0 0 0 2.9 3zm-22.2 0a3.009 3.009 0 0 0 3-3v-3h-6v3a3.009 3.009 0 0 0 3 3zm-7.5 0a3.009 3.009 0 0 0 3-3v-3h-5.9v3a2.924 2.924 0 0 0 2.9 3zm22.3 0a3.009 3.009 0 0 0 3-3v-3h-5.9v3a2.989 2.989 0 0 0 2.9 3zm-7.5 0a3.009 3.009 0 0 0 3-3v-3h-5.9v3a2.989 2.989 0 0 0 2.9 3zm-.7 5.9v-3h-5.9v3a3.009 3.009 0 0 0 3 3 2.925 2.925 0 0 0 2.9-3zm37.9-5.9a3.009 3.009 0 0 0 3-3v-3h-5.9v3a2.924 2.924 0 0 0 2.9 3zm-45.3 5.9v-3h-5.9v3a2.95 2.95 0 1 0 5.9 0zm37.8-5.9a3.009 3.009 0 0 0 3-3v-3h-5.9v3a2.989 2.989 0 0 0 2.9 3zm14.9 0a3.009 3.009 0 0 0 3-3v-3H115v3a2.862 2.862 0 0 0 2.9 3zm7.5 0a3.009 3.009 0 0 0 3-3v-3h-5.9v3a2.862 2.862 0 0 0 2.9 3zm-52.1 17.7a3.009 3.009 0 0 0 3-3v-3h-5.9v3a2.925 2.925 0 0 0 2.9 3zm6.7-11.8v-3h-5.9v3a3.009 3.009 0 0 0 3 3 2.925 2.925 0 0 0 2.9-3zm.8 11.8a3.009 3.009 0 0 0 3-3v-3h-5.9v3a2.925 2.925 0 0 0 2.9 3zm-25.3-2.9a3 3 0 0 0 6 0v-3h-5.9v3zm10.5 2.9a3.009 3.009 0 0 0 3-3v-3h-6v3a2.946 2.946 0 0 0 3 3zm-14.9-17.7a3.009 3.009 0 0 0 3-3v-3h-5.9v3a2.989 2.989 0 0 0 2.9 3zm51.2 5.9v-3h-5.9v3a3.009 3.009 0 0 0 3 3 2.925 2.925 0 0 0 2.9-3zm12.6 8.9a3 3 0 1 0 6 0v-3H115v3zm-14.8 0a3 3 0 0 0 6 0v-3h-5.9v3zm17.1-8.9v-3h-5.9v3a3.009 3.009 0 0 0 3 3 2.925 2.925 0 0 0 2.9-3zm-7.5 0v-3h-5.9v3a3.009 3.009 0 0 0 3 3 2.925 2.925 0 0 0 2.9-3zm-2.2 8.9a3 3 0 1 0 6 0v-3h-5.9v3zm17-8.9v-3h-5.9v3a3.009 3.009 0 0 0 3 3 2.925 2.925 0 0 0 2.9-3zm-2.1 8.9a3 3 0 1 0 6 0v-3h-5.9v3zm7.4-20.8v3a3 3 0 0 0 6 0v-3zm-86.2 6a3.009 3.009 0 0 0 3-3v-3h-5.9v3a2.989 2.989 0 0 0 2.9 3zm88.4 5.9v-3h-5.9v3a3.009 3.009 0 0 0 3 3 2.925 2.925 0 0 0 2.9-3zm-2.2 8.9a3 3 0 1 0 6 0v-3h-5.9v3zm-94.3-8.9v-3h-5.9v3a2.95 2.95 0 1 0 5.9 0zm-2.2 8.9a3 3 0 0 0 6 0v-3h-5.9v3zm9.7-8.9v-3h-6v3a3 3 0 0 0 6 0zm-14.2-5.9a3.009 3.009 0 0 0 3-3v-3h-5.9v3a2.924 2.924 0 0 0 2.9 3zm7.5 0a3.009 3.009 0 0 0 3-3v-3h-5.9v3a2.862 2.862 0 0 0 2.9 3zm-10.5 14.8a3 3 0 0 0 6 0v-3h-5.9v3zm14.9 0a3 3 0 0 0 6 0v-3h-5.9v3zm7.5 0a3 3 0 0 0 6 0v-3h-5.9v3zm9.6-8.9v-3h-5.9v3a3.009 3.009 0 0 0 3 3 2.925 2.925 0 0 0 2.9-3zm-7.5 0v-3h-5.9v3a3.009 3.009 0 0 0 3 3 2.925 2.925 0 0 0 2.9-3zm5.2 17.8a3.009 3.009 0 0 0 3 3H103a3.009 3.009 0 0 0 3-3v-3H55.5z"/>
    </g>
    <g id="_x2018_Ë_x201E_Û_xF8FF__x2021__x5F_3_x5F__x5F_x28_x5F_ÍÓÔË_x2C7__x5F_x29_x5F__x5F_3_1_">
      <path id="Path_4669" data-name="Path 4669" d="M95.7 154.4a3.009 3.009 0 0 0 3-3v-3h-5.9v3a2.862 2.862 0 0 0 2.9 3zm6.6-11.9v-3h-5.9v3a3.009 3.009 0 0 0 3 3 2.925 2.925 0 0 0 2.9-3zm-14.1 11.9a3.009 3.009 0 0 0 3-3v-3h-5.9v3a2.862 2.862 0 0 0 2.9 3zm7.5-17.8a3.009 3.009 0 0 0 3-3v-3h-5.9v3a2.808 2.808 0 0 0 2.9 3zm-.8 5.9v-3H89v3a2.95 2.95 0 1 0 5.9 0zm-14.1-5.9a3.009 3.009 0 0 0 3-3v-3h-5.9v3a2.925 2.925 0 0 0 2.9 3zm-22.3 0a3.009 3.009 0 0 0 3-3v-3h-5.9v3a2.865 2.865 0 0 0 2.9 3zm7.5 0a3.009 3.009 0 0 0 3-3v-3h-6v3a2.946 2.946 0 0 0 3 3zm21.5 5.9v-3h-5.9v3a3.009 3.009 0 0 0 3 3 2.925 2.925 0 0 0 2.9-3zm.7-5.9a3.009 3.009 0 0 0 3-3v-3h-5.9v3a2.808 2.808 0 0 0 2.9 3zm-14.9 0a3.009 3.009 0 0 0 3-3v-3h-5.9v3a2.925 2.925 0 0 0 2.9 3zm-17.8 14.8a3 3 0 0 0 6 0v-3h-5.9v3zm25.3 3a3.009 3.009 0 0 0 3-3v-3h-5.9v3a2.989 2.989 0 0 0 2.9 3zm22.2-17.8a3.009 3.009 0 0 0 3-3v-3h-5.9v3a2.925 2.925 0 0 0 2.9 3zm-51.9 0a3.009 3.009 0 0 0 3-3v-3h-5.9v3a2.925 2.925 0 0 0 2.9 3zm66.8 0a3.009 3.009 0 0 0 3-3v-3H115v3a2.808 2.808 0 0 0 2.9 3zm7.5 0a3.009 3.009 0 0 0 3-3v-3h-5.9v3a2.808 2.808 0 0 0 2.9 3zm-14.9 0a3.009 3.009 0 0 0 3-3v-3h-5.9v3a2.865 2.865 0 0 0 2.9 3zm-37.2 17.8a3.009 3.009 0 0 0 3-3v-3h-5.9v3a2.989 2.989 0 0 0 2.9 3zm6.7-11.9v-3h-5.9v3a3.009 3.009 0 0 0 3 3 2.925 2.925 0 0 0 2.9-3zm-14 11.9a3.009 3.009 0 0 0 3-3v-3h-6v3a3.009 3.009 0 0 0 3 3zm6.6-11.9v-3h-5.9v3a3.009 3.009 0 0 0 3 3 2.925 2.925 0 0 0 2.9-3zm-7.4 0v-3h-5.9v3a2.95 2.95 0 1 0 5.9 0zm59.3 0v-3h-5.9v3a3.009 3.009 0 0 0 3 3 2.925 2.925 0 0 0 2.9-3zm-9.6 8.9a3 3 0 0 0 6 0v-3H115v3zm2.3-8.9v-3h-5.9v3a3.009 3.009 0 0 0 3 3 2.925 2.925 0 0 0 2.9-3zm-7.5 0v-3h-5.9v3a3.009 3.009 0 0 0 3 3 2.925 2.925 0 0 0 2.9-3zm-2.2 8.9a3 3 0 0 0 6 0v-3h-5.9v3zm22.3 0a3 3 0 0 0 6 0v-3h-5.9v3zm-7.4 0a3 3 0 1 0 6 0v-3h-5.9v3zm-78.8-14.8a3.009 3.009 0 0 0 3-3v-3h-5.9v3a2.925 2.925 0 0 0 2.9 3zm86.2-5.9v3a3 3 0 0 0 6 0v-3zm2.2 11.8v-3h-5.9v3a3.009 3.009 0 0 0 3 3 2.925 2.925 0 0 0 2.9-3zm-31.9 8.9a3 3 0 0 0 6 0v-3h-5.9v3zm-66.8 0a3 3 0 0 0 6 0v-3h-5.9v3zm2.2-8.9v-3h-5.9v3a2.95 2.95 0 1 0 5.9 0zm7.5 0v-3h-6v3a3 3 0 0 0 6 0zm-6.7-5.9a3.009 3.009 0 0 0 3-3v-3h-5.9v3a2.808 2.808 0 0 0 2.9 3zm-10.5 14.8a3 3 0 0 0 6 0v-3h-5.9v3zm3-14.8a3.009 3.009 0 0 0 3-3v-3h-5.9v3a2.865 2.865 0 0 0 2.9 3zm19.4 14.8a3 3 0 0 0 6 0v-3h-5.9v3zm9.6-8.9v-3h-5.9v3a3.009 3.009 0 0 0 3 3 2.925 2.925 0 0 0 2.9-3zm-7.5 0v-3h-5.9v3a3.009 3.009 0 0 0 3 3 2.925 2.925 0 0 0 2.9-3zm-9.6 8.9a3 3 0 0 0 6 0v-3h-5.9v3zm14.8 9a3.009 3.009 0 0 0 3 3H103a3.009 3.009 0 0 0 3-3v-3H55.5z" fill="#f6f6f6" fill-rule="evenodd"/>
    </g>
    <g id="_x2018_Ë_x201E_Û_xF8FF__x2021__x5F_11_1_" class="cls-6">
      <path id="Path_4670" data-name="Path 4670" class="cls-2" d="M25 130.7h111.4a.7.7 0 0 0 0-1.4H25a.684.684 0 0 0-.7.7.751.751 0 0 0 .7.7zm3.1 7.4a.7.7 0 1 0 0 1.4h105.3a.7.7 0 1 0 0-1.4zm108.3 8.9H25.1a.7.7 0 1 0 0 1.4h111.3a.7.7 0 1 0 0-1.4zm-29.7 8.9H54.8a.7.7 0 1 0 0 1.4h51.8a.684.684 0 0 0 .7-.7c0-.4-.2-.7-.6-.7z"/>
    </g>
    <g id="_x2018_Ë_x201E_Û_xF8FF__x2021__x5F_12_x5F__x5F_x28_x5F_ÍÓÔË_x2C7__x5F_x29_x5F__1_">
      <path id="Path_4671" data-name="Path 4671" class="cls-18" d="M90.9 75.1a10.484 10.484 0 0 1-10.1 8.1 10.3 10.3 0 0 1-10.1-8.1l-2.9.7a13.486 13.486 0 0 0 13 10.4 13.3 13.3 0 0 0 13-10.4z"/>
    </g>
    <g id="_x2018_Ë_x201E_Û_xF8FF__x2021__x5F_13_1_">
      <path id="Path_4672" data-name="Path 4672" class="cls-18" d="M81 103.9V87.6h-.4v16.3a.858.858 0 0 0-.6.7v7.4a.7.7 0 1 0 1.4 0v-7.4a.569.569 0 0 0-.4-.7zm-22.1-9l11.5-11.5-.3-.3-11.5 11.5a.744.744 0 0 0-.9.1l-5.2 5.2a.707.707 0 0 0 1 1l5.2-5.2c.3-.1.3-.5.2-.8zm44.9-.1a.744.744 0 0 0-.9-.1L91.4 83.1l-.3.3 11.5 11.5a.744.744 0 0 0 .1.9l5.2 5.2a.707.707 0 0 0 1-1zM69 101.6l6.2-15-.3-.1-6.2 15a.68.68 0 0 0-.8.4l-2.8 6.9a.762.762 0 0 0 1.4.6l2.8-6.9a.759.759 0 0 0-.3-.9zm48.3-14.5l-6.9-2.8a.806.806 0 0 0-.9.3l-15-6.2-.1.3 15 6.2c0 .3.1.7.4.8l6.9 2.8a.762.762 0 0 0 .6-1.4zm-65.2-2.3l15-6.2-.1-.3-15 6.2a.806.806 0 0 0-.9-.3L44.2 87a.762.762 0 0 0 .6 1.4l6.9-2.8a.894.894 0 0 0 .4-.8zm41.5 17.1a.68.68 0 0 0-.8-.4l-6.2-15-.3.1 6.2 15a.651.651 0 0 0-.2.9l2.8 6.9a.762.762 0 0 0 1.4-.6zm-18.7 1.4l3.2-16-.3-.1-3.2 16a.858.858 0 0 0-.7.6l-1.4 7.3a.765.765 0 0 0 1.5.3l1.4-7.3a1.02 1.02 0 0 0-.5-.8zM55 90.2l13.5-9.1-.2-.3-13.5 9.1a.744.744 0 0 0-.9-.1L47.7 94a.721.721 0 1 0 .8 1.2l6.2-4.1a.806.806 0 0 0 .3-.9zm44.1 8.6a.806.806 0 0 0-.9-.3l-9-13.5-.3.2L98 98.7a.744.744 0 0 0-.1.9l4.1 6.2a.721.721 0 1 0 1.2-.8zm-35.5 0l9-13.6-.2-.2-9 13.5a.806.806 0 0 0-.9.3l-4.1 6.2a.721.721 0 0 0 1.2.8l4.1-6.2a.529.529 0 0 0-.1-.8zm50.3-4.9l-6.2-4.1a.633.633 0 0 0-.9.1l-13.5-9-.3.2 13.6 9a.806.806 0 0 0 .3.9l6.2 4.1a.775.775 0 0 0 1-.2.8.8 0 0 0-.2-1zm-26.2 9.9a.858.858 0 0 0-.7-.6l-3.2-16-.3.1 3.2 16a.68.68 0 0 0-.4.8l1.5 7.3a.765.765 0 1 0 1.5-.3zm-10.9-.2L79 87.5h-.4l-2.2 16.1a.858.858 0 0 0-.7.6l-1 7.4a.707.707 0 1 0 1.4.2l1-7.4c.2-.3 0-.6-.3-.8zM56.1 91.8L69 81.9l-.2-.3-12.9 9.9a.75.75 0 0 0-.9 0L49.1 96a.711.711 0 1 0 .9 1.1l5.9-4.5a.524.524 0 0 0 .2-.8zm44.6 5.8a.651.651 0 0 0-.9-.2l-9.9-12.9-.3.2 9.9 12.9a.75.75 0 0 0 0 .9l4.5 5.9a.711.711 0 1 0 1.1-.9zm-35.4 2.2l8.2-14.1-.3-.2L65 99.6a.806.806 0 0 0-.9.3l-3.7 6.4a.738.738 0 1 0 1.3.7l3.7-6.4a.619.619 0 0 0-.1-.8zm49.8-8l-6.4-3.7a.744.744 0 0 0-.9.1L93.7 80l-.2.3 14.1 8.2a.63.63 0 0 0 .3.8l6.4 3.7a.693.693 0 0 0 1-.3c.3-.2.2-.7-.2-.9zM43 83.6l7.2-1.9a.752.752 0 0 0 .5-.7l15.7-4.2-.1-.3-15.7 4.2a.735.735 0 0 0-.8-.4l-7.2 1.9a.715.715 0 0 0-.5.9.8.8 0 0 0 .9.5zm46.7 19.7c-.1-.3-.4-.6-.7-.5l-4.2-15.7-.3.1 4.2 15.7a.909.909 0 0 0-.4.8l1.9 7.2a.728.728 0 1 0 1.4-.4zm-18.8-1l5.2-15.4-.3-.1-5.2 15.4a.891.891 0 0 0-.8.5l-2.4 7a.728.728 0 1 0 1.4.4l2.4-7a.67.67 0 0 0-.3-.8zm47.3-17.6l-7-2.4a.806.806 0 0 0-.9.3l-15.4-5.2-.1.3 15.4 5.2a1.02 1.02 0 0 0 .5.8l7 2.4a.715.715 0 0 0 .9-.5.631.631 0 0 0-.4-.9zm-65.3 2l14.6-7.2-.2-.3-14.6 7.2a.651.651 0 0 0-.9-.2l-6.7 3.3a.738.738 0 0 0 .7 1.3l6.7-3.3a.735.735 0 0 0 .4-.8zM95.5 101a.735.735 0 0 0-.8-.4L87.5 86l-.3.2 7.2 14.6a.959.959 0 0 0-.2.9l3.3 6.7a.738.738 0 0 0 1.3-.7zm-35.1-4.7L71.1 84l-.3-.2L60.1 96a.651.651 0 0 0-.9.2l-4.9 5.6a.711.711 0 1 0 1.1.9l4.9-5.6a.783.783 0 0 0 .1-.8zm44.8-3.1a.75.75 0 0 0-.9 0L92 82.4l-.2.3L104 93.4a.765.765 0 0 0 .2.9l5.6 4.9a.711.711 0 1 0 .9-1.1zm-22.3 10.6l-1.1-16.2h-.4l1.1 16.3a.752.752 0 0 0-.5.7l.5 7.4a.752.752 0 1 0 1.5-.1l-.5-7.4a.661.661 0 0 0-.6-.7zm-3.3-16.2l-1.1 16.2a.749.749 0 0 0-.6.7l-.5 7.4a.752.752 0 0 0 1.5.1l.5-7.4a.752.752 0 0 0-.5-.7L80 87.6zm-22.1 5.8l12.3-10.7-.2-.3-12.4 10.7a.746.746 0 0 0-.9 0L50.7 98a.711.711 0 0 0 .9 1.1l5.6-4.9a.63.63 0 0 0 .3-.8zm44.8 2.8a.765.765 0 0 0-.9-.2L90.7 83.8l-.3.2 10.7 12.3a.642.642 0 0 0 .1.9l4.9 5.6a.711.711 0 0 0 1.1-.9zm-35.2 4.6l7.2-14.6-.3-.2-7.2 14.6a.68.68 0 0 0-.8.4l-3.3 6.7a.738.738 0 1 0 1.3.7l3.3-6.7a.631.631 0 0 0-.2-.9zm49.2-11.3l-6.7-3.3a.651.651 0 0 0-.9.2l-14.6-7.2-.1.3 14.6 7.2a.68.68 0 0 0 .4.8l6.7 3.3a.777.777 0 0 0 1-.3.819.819 0 0 0-.4-1zm-65.5-5.8a.792.792 0 0 0 .5-.8l15.4-5.2-.1-.3-15.4 5.2a.759.759 0 0 0-.9-.3l-7 2.4a.728.728 0 1 0 .4 1.4zm40.9 19a.792.792 0 0 0-.8-.5l-5.2-15.4-.3.1 5.2 15.4a.759.759 0 0 0-.3.9l2.4 7a.728.728 0 1 0 1.4-.4zm-18.8.2l4.2-15.7-.3-.1-4.2 15.7c-.3 0-.7.2-.7.5l-1.9 7.2a.728.728 0 0 0 1.4.4l1.9-7.2c0-.3-.1-.7-.4-.8zm46-20.7l-7.2-1.9a.68.68 0 0 0-.8.4l-15.7-4.2-.1.3 15.7 4.2a.752.752 0 0 0 .5.7l7.2 1.9a.728.728 0 0 0 .4-1.4zm-65 6.3L68 80.3l-.2-.3-14.1 8.1a.744.744 0 0 0-.9-.1l-6.4 3.7a.738.738 0 0 0 .7 1.3l6.4-3.7a.735.735 0 0 0 .4-.8zM97.3 100a.759.759 0 0 0-.9-.3l-8.1-14.1-.3.1 8.1 14.1a.744.744 0 0 0-.1.9l3.7 6.4a.738.738 0 0 0 1.3-.7zM62 97.6l9.9-12.9-.3-.2-9.9 12.9a.765.765 0 0 0-.9.2l-4.5 5.9a.711.711 0 1 0 1.1.9l4.5-5.9a.647.647 0 0 0 .1-.9zm50.4-1.5l-5.9-4.5a.746.746 0 0 0-.9 0l-12.9-9.9-.2.3 12.9 9.9a.959.959 0 0 0 .2.9l5.9 4.5a.758.758 0 0 0 1-.1.772.772 0 0 0-.1-1.1zm-26.7 8.1a.669.669 0 0 0-.7-.6l-2.1-16.1h-.4l2.1 16.1a.792.792 0 0 0-.5.8l1 7.4c.1.4.4.7.8.6s.7-.4.6-.8z"/>
    </g>
    <g id="_x2018_Ë_x201E_Û_xF8FF__x2021__x5F_17_1_">
      <path id="Path_4673" data-name="Path 4673" d="M136.4 64.6H25.1a2.2 2.2 0 1 0 0 4.4h111.3a2.22 2.22 0 0 0 2.2-2.2 2.156 2.156 0 0 0-2.2-2.2z" fill="#cacaca"/>
    </g>
    <g id="_x2018_Ë_x201E_Û_xF8FF__x2021__x5F_25_1_">
      <path id="Path_4674" data-name="Path 4674" class="cls-13" d="M134.2 62.4a4.5 4.5 0 1 0 4.5 4.5 4.419 4.419 0 0 0-4.5-4.5zm-106.9 0a4.5 4.5 0 1 0 4.5 4.5 4.419 4.419 0 0 0-4.5-4.5z"/>
    </g>
    <g id="_x2018_Ë_x201E_Û_xF8FF__x2021__x5F_29_1_">
      <path id="Path_4675" data-name="Path 4675" class="cls-13" d="M161 40.1h-17.8a1.371 1.371 0 0 0-1.7 1l-8.7 25.3a1.487 1.487 0 1 0 2.8 1l7.3-21.3H161a1.367 1.367 0 0 0 1.4-1.4v-3.1a1.394 1.394 0 0 0-1.4-1.5z"/>
    </g>
    <g id="_x2018_Ë_x201E_Û_xF8FF__x2021__x5F_30_1_">
      <path id="Rectangle_523" data-name="Rectangle 523" class="cls-20" transform="translate(143.1 41.6)" d="M0 0h17.8v3H0z"/>
    </g>
    <g id="_x2018_Ë_x201E_Û_xF8FF__x2021__x5F_31_1_">
      <path id="Rectangle_524" data-name="Rectangle 524" class="cls-12" transform="translate(143.1 41.6)" d="M0 0h17.8v1.5H0z"/>
    </g>
    <g id="_x2018_Ë_x201E_Û_xF8FF__x2021__x5F_18_1_">
      <path id="Path_4676" data-name="Path 4676" class="cls-20" d="M134.9 66.1H26.6a.7.7 0 1 0 0 1.4h108.3a.7.7 0 1 0 0-1.4z"/>
    </g>
    <g id="_x2018_Ë_x201E_Û_xF8FF__x2021__x5F_16_1_">
      <path id="Path_4677" data-name="Path 4677" class="cls-8" d="M122.4 63.1a1.538 1.538 0 0 0-1.5 1.5V69a1.5 1.5 0 0 0 3 0v-4.4a1.538 1.538 0 0 0-1.5-1.5zm-83.1 0a1.538 1.538 0 0 0-1.5 1.5V69a1.5 1.5 0 0 0 3 0v-4.4a1.612 1.612 0 0 0-1.5-1.5z"/>
    </g>
    <g id="_x2018_Ë_x201E_Û_xF8FF__x2021__x5F_13_x5F__x5F_x28_x5F_ÍÓÔË_x2C7__x5F_x29_x5F__1_">
      <path id="Path_4678" data-name="Path 4678" class="cls-13" d="M80.8 107a.472.472 0 0 0-.5.5v4.5a.5.5 0 0 0 1 0v-4.5c-.1-.3-.3-.5-.5-.5zm0-19.9a.472.472 0 0 0-.5.5v4.5a.5.5 0 0 0 1 0v-4.5c-.1-.3-.3-.5-.5-.5zm-24.2 9.8c-.2-.2-.5-.2-.6 0l-3.2 3.2c-.2.2-.2.5 0 .6.2.2.5.2.6 0l3.2-3.2a.629.629 0 0 0 0-.6zm10.1-10.8c-.2.2-.2.5 0 .6.2.2.5.2.6 0l3.2-3.2c.2-.2.2-.5 0-.6-.2-.2-.5-.2-.6 0zm38.9 10.8c-.2-.2-.5-.2-.6 0-.2.2-.2.5 0 .6l3.2 3.2c.2.2.5.2.6 0 .2-.2.2-.5 0-.6zM94.1 86.8c.2.2.5.2.6 0 .2-.2.2-.5 0-.6L91.5 83c-.2-.2-.5-.2-.6 0-.2.2-.2.5 0 .6zm-26.4 17.6a.481.481 0 0 0-.6.2l-1.7 4.2a.447.447 0 1 0 .8.4l1.7-4.2a.445.445 0 0 0-.2-.6zm5.5-13.3a.481.481 0 0 0 .6-.2l1.7-4.2a.447.447 0 1 0-.8-.4L73 90.5c-.2.2-.1.5.2.6zm44-3.8l-4.2-1.7a.447.447 0 0 0-.4.8l4.2 1.7a.447.447 0 1 0 .4-.8zm-22.9-8.5l4.2 1.7a.447.447 0 1 0 .4-.8L94.6 78a.481.481 0 0 0-.6.2.6.6 0 0 0 .3.6zm-45.1 7a.481.481 0 0 0-.6-.2l-4.2 1.7a.447.447 0 1 0 .4.8l4.2-1.7a.845.845 0 0 0 .2-.6zM66.9 78l-4.2 1.7a.447.447 0 1 0 .4.8l4.2-1.7a.447.447 0 0 0-.4-.8zm27.6 26.6a.447.447 0 0 0-.8.4l1.7 4.2a.447.447 0 1 0 .8-.4zm-6.7-13.8a.447.447 0 1 0 .8-.4l-1.7-4.2a.447.447 0 0 0-.8.4zm-13.7 15.5c-.2 0-.5.1-.5.4l-.9 4.4c0 .2.1.5.4.5.2 0 .5-.1.5-.4l.9-4.4a.51.51 0 0 0-.4-.5zM78 86.9c-.2 0-.5.1-.5.4l-.9 4.4c0 .2.1.5.4.5.2 0 .5-.1.5-.4l.9-4.4a.458.458 0 0 0-.4-.5zm-25.7 4.9a.377.377 0 0 0-.6-.1l-3.8 2.5a.43.43 0 0 0 .5.7l3.8-2.5a.377.377 0 0 0 .1-.6zm15.9-11.2l-3.8 2.5a.43.43 0 1 0 .5.7l3.8-2.5a.377.377 0 0 0 .1-.6c-.1-.2-.4-.2-.6-.1zm32.2 20.7a.43.43 0 0 0-.7.5l2.5 3.8a.43.43 0 0 0 .7-.5zm-9.2-12.2a.43.43 0 1 0 .7-.5l-2.5-3.8a.43.43 0 0 0-.7.5zm-29.4 12.1c-.2-.1-.5-.1-.6.1l-2.5 3.8c-.1.2-.1.5.1.6s.5.1.6-.1l2.5-3.8a.471.471 0 0 0-.1-.6zm7.8-12.6c-.1.2-.1.5.1.6s.5.1.6-.1l2.5-3.8c.1-.2.1-.5-.1-.6s-.5-.1-.6.1zm40.3 3c-.2-.1-.5-.1-.6.1s-.1.5.1.6l3.8 2.5c.2.1.5.1.6-.1s.1-.5-.1-.6zm-13.3-7.7c.2.1.5.1.6-.1s.1-.5-.1-.6l-3.8-2.5c-.2-.1-.5-.1-.6.1s-.1.5.1.6zm-9.1 22.4c-.2 0-.4.3-.4.5l.9 4.4c0 .2.3.4.5.4s.4-.3.4-.5l-.9-4.4c0-.3-.3-.4-.5-.4zm-3.4-19.1c0-.2-.3-.4-.5-.4s-.4.3-.4.5l.9 4.4c0 .2.3.4.5.4s.4-.3.4-.5zm-7.9 19.5c-.2 0-.5.1-.5.4l-.6 4.5c0 .2.1.5.4.5.2 0 .5-.1.5-.4l.6-4.5c.1-.3-.1-.5-.4-.5zm1.9-14.3c.2 0 .5-.1.5-.4l.6-4.5c0-.2-.1-.5-.4-.5-.2 0-.5.1-.5.4l-.6 4.5c0 .2.2.5.4.5zm-24.5 1.1a.471.471 0 0 0-.6-.1l-3.6 2.8a.43.43 0 0 0 .5.7l3.6-2.8c.2-.1.2-.4.1-.6zm11.5-9.3a.43.43 0 1 0 .5.7l3.6-2.8a.43.43 0 0 0-.5-.7zm37.1 15.8a.43.43 0 0 0-.7.5l2.8 3.6a.43.43 0 0 0 .7-.5zm-10-11.6a.43.43 0 1 0 .7-.5l-2.8-3.6a.43.43 0 0 0-.7.5zm-28.6 14a.4.4 0 0 0-.6.2l-2.3 3.9a.447.447 0 0 0 .8.4l2.3-3.9a.481.481 0 0 0-.2-.6zm7.1-13.1a.447.447 0 1 0 .8.4l2.3-3.9a.447.447 0 1 0-.8-.4zm44.2 2.7l-3.9-2.3a.447.447 0 0 0-.4.8l3.9 2.3a.4.4 0 0 0 .6-.2.481.481 0 0 0-.2-.6zM93.4 80.6l3.9 2.3a.447.447 0 1 0 .4-.8l-3.9-2.3a.4.4 0 0 0-.6.2.481.481 0 0 0 .2.6zm-45.7.9a.486.486 0 0 0-.6-.3l-4.4 1.2a.474.474 0 0 0 .3.9l4.4-1.2a.486.486 0 0 0 .3-.6zm14.5-3.3l4.4-1.2a.474.474 0 0 0-.3-.9l-4.4 1.2a.486.486 0 0 0-.3.6.6.6 0 0 0 .6.3zm27.9 27.9a.474.474 0 0 0-.9.3l1.2 4.4a.474.474 0 0 0 .9-.3zm-4.8-14.5a.474.474 0 1 0 .9-.3L85 87a.474.474 0 1 0-.9.3zm-15.6 13.5a.446.446 0 0 0-.6.3l-1.5 4.3a.474.474 0 1 0 .9.3l1.5-4.3a.446.446 0 0 0-.3-.6zm6.4-18.7a.446.446 0 0 0-.6.3L74 91a.474.474 0 1 0 .9.3l1.5-4.3c.1-.3 0-.6-.3-.6zM118 85l-4.3-1.5a.474.474 0 0 0-.3.9l4.3 1.5a.446.446 0 0 0 .6-.3c.1-.3 0-.6-.3-.6zm-23.3-7l4.3 1.5a.474.474 0 1 0 .3-.9L95 77.1a.474.474 0 0 0-.3.9zm-44.6 9.9a.481.481 0 0 0-.6-.2l-4.1 2a.447.447 0 1 0 .4.8l4.1-2a.481.481 0 0 0 .2-.6zm17.2-9l-4.1 2a.447.447 0 1 0 .4.8l4.1-2a.481.481 0 0 0 .2-.6c-.2-.2-.4-.3-.6-.2zm29.2 24.8a.447.447 0 0 0-.8.4l2 4.1a.447.447 0 1 0 .8-.4zm-7-13.2a.481.481 0 0 0 .2-.6l-2-4.1a.447.447 0 0 0-.8.4l2 4.1a.4.4 0 0 0 .6.2zm-31.3 8a.452.452 0 0 0-.6 0l-3 3.4a.424.424 0 0 0 .6.6l3-3.4c.2-.2.2-.5 0-.6zM67.6 87a.424.424 0 0 0 .6.6l3-3.4a.424.424 0 0 0-.6-.6zm39.5 8.3a.424.424 0 0 0-.6.6l3.4 3a.424.424 0 0 0 .6-.6zM95 85.9a.424.424 0 0 0 .6-.6l-3.4-3a.424.424 0 0 0-.6.6zm-12 21c-.3 0-.4.2-.4.5l.3 4.5a.453.453 0 0 0 .9-.1l-.3-4.5a.664.664 0 0 0-.5-.4zm-1.3-19.8a.458.458 0 0 0-.4.5l.3 4.5a.458.458 0 0 0 .5.4c.3 0 .4-.2.4-.5l-.3-4.5c0-.2-.3-.4-.5-.4zm-3.2 19.8c-.2 0-.5.2-.5.4l-.3 4.5a.458.458 0 0 0 .4.5c.2 0 .5-.2.5-.4l.3-4.5a.458.458 0 0 0-.4-.5zm1.3-19.8c-.2 0-.5.2-.5.4L79 92a.458.458 0 0 0 .4.5c.2 0 .5-.2.5-.4l.3-4.5c.1-.3-.1-.5-.4-.5zM55 95.3c-.2-.2-.5-.2-.6 0l-3.4 3c-.2.2-.2.5 0 .6.2.2.5.2.6 0l3.4-3c.2-.1.2-.4 0-.6zm10.9-10.1c-.2.2-.2.5 0 .6.2.2.5.2.6 0l3.4-3c.2-.2.2-.5 0-.6-.2-.2-.5-.2-.6 0zm38 13.3c-.2-.2-.5-.2-.6 0-.2.2-.2.5 0 .6l3 3.4c.2.2.5.2.6 0 .2-.2.2-.5 0-.6zM93.2 87.6c.2.2.5.2.6 0 .2-.2.2-.5 0-.6l-3-3.4c-.2-.2-.5-.2-.6 0-.2.2-.2.5 0 .6zm-27.6 15.8a.481.481 0 0 0-.6.2l-2 4.1a.447.447 0 0 0 .8.4l2-4.1a.481.481 0 0 0-.2-.6zm8.8-17.8a.481.481 0 0 0-.6.2l-2 4.1a.447.447 0 1 0 .8.4l2-4.1c.1-.2 0-.4-.2-.6zm41.7 4.1l-4.1-2a.447.447 0 0 0-.4.8l4.1 2a.447.447 0 1 0 .4-.8zm-22.2-10l4.1 2a.447.447 0 1 0 .4-.8l-4.1-2a.481.481 0 0 0-.6.2c-.2.2-.1.5.2.6zm-45.5 4a.486.486 0 0 0-.6-.3l-4.3 1.5a.474.474 0 0 0 .3.9l4.3-1.5a.6.6 0 0 0 .3-.6zm18.2-6.6l-4.3 1.5a.474.474 0 0 0 .3.9l4.3-1.5a.486.486 0 0 0 .3-.6.446.446 0 0 0-.6-.3zm25.7 28.3a.474.474 0 0 0-.9.3l1.5 4.3a.474.474 0 1 0 .9-.3zm-4.9-14.5L86 86.7a.474.474 0 1 0-.9.3l1.5 4.3a.486.486 0 0 0 .6.3.618.618 0 0 0 .2-.7zm-15.5 14.9c-.2-.1-.5.1-.6.3l-1.2 4.4c-.1.2.1.5.3.6s.5-.1.6-.3l1.2-4.4a.419.419 0 0 0-.3-.6zm3.7-13.9c.2.1.5-.1.6-.3l1.2-4.4c.1-.2-.1-.5-.3-.6s-.5.1-.6.3l-1.2 4.4a.486.486 0 0 0 .3.6zm43.2-9.4l-4.4-1.2c-.2-.1-.5.1-.6.3s.1.5.3.6l4.4 1.2c.2.1.5-.1.6-.3 0-.3-.1-.6-.3-.6zM95 77l4.4 1.2c.2.1.5-.1.6-.3s-.1-.5-.3-.6l-4.4-1.2c-.2-.1-.5.1-.6.3-.1.3 0 .6.3.6zM51.1 89.9a.481.481 0 0 0-.6-.2L46.6 92a.447.447 0 1 0 .4.8l3.9-2.3c.3-.1.4-.4.2-.6zm16.6-10.1L63.8 82a.447.447 0 1 0 .4.8l3.9-2.3a.481.481 0 0 0 .2-.6.377.377 0 0 0-.6-.1zm30.8 22.7a.447.447 0 0 0-.8.4l2.3 3.9a.447.447 0 1 0 .8-.4zm-8.4-12.8a.447.447 0 1 0 .8-.4l-2.3-3.9a.447.447 0 0 0-.8.4zM59.9 99.9a.377.377 0 0 0-.6.1l-2.8 3.6a.43.43 0 1 0 .7.5l2.8-3.6a.377.377 0 0 0-.1-.6zm8.7-12.1a.43.43 0 0 0 .7.5l2.8-3.6a.43.43 0 1 0-.7-.5zm39.9 5.7a.43.43 0 1 0-.5.7l3.6 2.8a.43.43 0 1 0 .5-.7zm-12.6-8.6a.43.43 0 0 0 .5-.7l-3.6-2.8a.43.43 0 1 0-.5.7zm-10.7 21.8c-.2 0-.4.3-.4.5l.6 4.5c0 .2.3.4.5.4s.4-.3.4-.5l-.6-4.5c0-.3-.2-.5-.5-.4zm-1.8-14.3c.2 0 .4-.3.4-.5l-.6-4.5c0-.2-.3-.4-.5-.4s-.4.3-.4.5l.6 4.5c0 .3.2.4.5.4z"/>
    </g>
    <g id="Group_4218" data-name="Group 4218">
      <g id="Group_4217" data-name="Group 4217">
        <g id="XMLID_30_">
          <g id="XMLID_31_">
            <g id="XMLID_32_">
              <g id="XMLID_44_">
                <path id="XMLID_45_" class="cls-21" d="M63.6 13.6h6.3a2.287 2.287 0 0 0-2.3-1.6 2.5 2.5 0 1 0 1.5 4.5.781.781 0 0 1 1 1.2 3.84 3.84 0 0 1-2.5.9 4.118 4.118 0 0 1-4.1-4.1 4.055 4.055 0 0 1 4.1-4.1 4.118 4.118 0 0 1 4.1 4.1v.8h-7.1"/>
              </g>
              <path id="XMLID_41_" class="cls-22" d="M49.4 17.7a.845.845 0 0 1-.2.6 1 1 0 0 1-1.2 0c-.2-.1-.2-.3-.2-.6a4.069 4.069 0 0 1-2.4.8 4.1 4.1 0 0 1-2.9-7 4.1 4.1 0 0 1 5.8 0 3.847 3.847 0 0 1 1.2 2.9v3.3zm-2.4-5a2.06 2.06 0 0 0-1.7-.7 2.39 2.39 0 0 0-2.4 2.4 2.4 2.4 0 0 0 4.1 1.7 2.666 2.666 0 0 0 .7-1.4v-.4a1.865 1.865 0 0 0-.7-1.6z"/>
              <path id="XMLID_38_" class="cls-22" d="M57.3 20.2a1.421 1.421 0 0 1-.2.6.735.735 0 0 1-.6.2 1.421 1.421 0 0 1-.6-.2.735.735 0 0 1-.2-.6v-2.4a4.069 4.069 0 0 1-2.4.8 4.1 4.1 0 0 1-2.9-7 4.1 4.1 0 0 1 5.8 0 3.847 3.847 0 0 1 1.2 2.9v5.7zm-2.4-7.4a2.342 2.342 0 0 0-1.7-.7 2.39 2.39 0 0 0-2.4 2.4 2.4 2.4 0 0 0 4.1 1.7 2.666 2.666 0 0 0 .7-1.4v-.4a1.865 1.865 0 0 0-.7-1.6z"/>
              <path id="XMLID_37_" class="cls-21" d="M56.7 13.6H63a2.287 2.287 0 0 0-2.3-1.6 2.5 2.5 0 1 0 1.5 4.5.781.781 0 0 1 1 1.2 3.84 3.84 0 0 1-2.5.9 4.118 4.118 0 0 1-4.1-4.1 4.1 4.1 0 1 1 8.2 0v.8h-7.4"/>
              <path id="XMLID_34_" class="cls-22" d="M79.3 14.4a4.1 4.1 0 1 1-4.1-4.1 4.069 4.069 0 0 1 2.4.8V8.7a1.421 1.421 0 0 1 .2-.6.735.735 0 0 1 .6-.2 1.421 1.421 0 0 1 .6.2.735.735 0 0 1 .2.6v5.7zm-1.7.2v-.4a2.666 2.666 0 0 0-.7-1.4 2.342 2.342 0 0 0-1.7-.7 2.193 2.193 0 0 0-1.7.7 2.342 2.342 0 0 0-.7 1.7 2.4 2.4 0 0 0 4.1 1.7 2.575 2.575 0 0 0 .7-1.6z"/>
              <ellipse id="XMLID_33_" class="cls-21" cx="1" cy="1.1" rx="1" ry="1.1" transform="translate(78.7 16.6)"/>
            </g>
          </g>
        </g>
        <g id="XMLID_1_">
          <g id="XMLID_2_">
            <g id="XMLID_3_">
              <path id="XMLID_27_" class="cls-23" d="M61.6 20.8l-.2-.1v-.2h.2c.1 0 .2 0 .2.2v.9a.1.1 0 0 0 .1.1h.1v.2h-.2c-.1 0-.2 0-.2-.2zm0-.8h.2v.3h-.2z"/>
              <path id="XMLID_25_" class="cls-23" d="M62.3 20.8l-.2-.1v-.2h.2c.1 0 .2 0 .2.1v.1a.623.623 0 0 1 .5-.3.472.472 0 0 1 .5.5v.6a.1.1 0 0 0 .1.1h.1v.2h-.3c-.1 0-.2 0-.2-.2V21c0-.2 0-.3-.2-.3s-.4.1-.4.3v.8h-.3v-1z"/>
              <path id="XMLID_23_" class="cls-23" d="M64.6 21.5a.7.7 0 0 0 .4.2.215.215 0 0 0 .2-.2c0-.2-.7-.2-.7-.6 0-.3.2-.4.5-.4.2 0 .4.1.4.3v.1h-.2v-.1c0-.1-.1-.1-.2-.1a.215.215 0 0 0-.2.2c0 .3.7.2.7.6a.458.458 0 0 1-.5.4c-.4 0-.5-.2-.5-.2z"/>
              <path id="XMLID_21_" class="cls-23" d="M65.8 20.8l-.2-.1v-.2h.2c.1 0 .2 0 .2.2v.6c0 .2 0 .3.2.3.3 0 .4-.2.4-.5v-.6h.4v1a.1.1 0 0 0 .1.1h.1v.2H67a.349.349 0 0 1-.2-.1v-.1a.623.623 0 0 1-.5.3c-.3 0-.4-.2-.4-.5v-.6z"/>
              <path id="XMLID_19_" class="cls-23" d="M67.5 20.8l-.2-.1v-.2h.2c.1 0 .2 0 .2.2v.2c.1-.2.2-.3.4-.3h.1v.3h-.1c-.2 0-.3.1-.4.3v.7h-.3v-1.1z"/>
              <path id="XMLID_16_" class="cls-23" d="M68.9 20.5a.576.576 0 0 1 .6.6v.1h-1c0 .3.2.4.5.4a.7.7 0 0 0 .4-.2l.1.2a.765.765 0 0 1-.5.2.684.684 0 0 1-.7-.7.645.645 0 0 1 .6-.6zm.4.6a.265.265 0 0 0-.3-.3c-.2 0-.4.1-.4.3z"/>
              <path id="XMLID_14_" class="cls-23" d="M70.5 20.3l-.2-.1V20h.3c.1 0 .2 0 .2.2v.6a.623.623 0 0 1 .5-.3.472.472 0 0 1 .5.5v.6a.1.1 0 0 0 .1.1h.1v.2h-.2c-.1 0-.2 0-.2-.2v-.6c0-.2 0-.3-.3-.3-.2 0-.4.1-.4.3v.8h-.3v-1.6z"/>
              <path id="XMLID_11_" class="cls-23" d="M72.9 21.1c.1-.2 0-.3-.2-.3-.1 0-.2 0-.2.1v.1h-.2v-.1c0-.2.3-.2.5-.2.4 0 .5.2.5.5v.6a.1.1 0 0 0 .1.1h.1v.2h-.2a.215.215 0 0 1-.2-.2v-.1a.446.446 0 0 1-.4.3.366.366 0 0 1-.4-.4c-.2-.6.3-.6.6-.6zm-.3.6a.43.43 0 0 0 .4-.4h-.1c-.2 0-.5 0-.5.3-.1 0 0 .1.2.1z"/>
              <path id="XMLID_9_" class="cls-23" d="M73.6 20.8l-.2-.1v-.2h.2c.1 0 .2 0 .2.1v.1a.623.623 0 0 1 .5-.3.472.472 0 0 1 .5.5v.6a.1.1 0 0 0 .1.1h.1v.2h-.3c-.1 0-.2 0-.2-.2V21c0-.2 0-.3-.2-.3s-.4.1-.4.3v.8h-.3z"/>
              <path id="XMLID_6_" class="cls-23" d="M75.7 20.5a.433.433 0 0 1 .4.2v-.4a.1.1 0 0 0-.1-.1V20h.3c.1 0 .2 0 .2.2v1.4a.1.1 0 0 0 .1.1h.1v.2h-.2a.349.349 0 0 1-.2-.1v-.1a.433.433 0 0 1-.4.2c-.4 0-.6-.3-.6-.7a.46.46 0 0 1 .4-.7zm.4.7c0-.2-.1-.5-.4-.5a.512.512 0 0 0 0 1c.2 0 .4-.1.4-.5z"/>
              <path id="XMLID_4_" class="cls-23" d="M76.8 21.5a.7.7 0 0 0 .4.2.215.215 0 0 0 .2-.2c0-.2-.7-.2-.7-.6 0-.3.2-.4.5-.4.2 0 .4.1.4.3v.1h-.2v-.1c0-.1-.1-.1-.2-.1a.215.215 0 0 0-.2.2c0 .3.7.2.7.6a.458.458 0 0 1-.5.4c-.4 0-.5-.2-.5-.2z"/>
            </g>
          </g>
        </g>
      </g>
    </g>
  </g>
</svg>
